<?xml version="1.0" standalone="no"?>
<!DOCTYPE svg PUBLIC "-//W3C//DTD SVG 20010904//EN"
 "http://www.w3.org/TR/2001/REC-SVG-20010904/DTD/svg10.dtd">
<svg version="1.0" xmlns="http://www.w3.org/2000/svg"
 width="576.000000pt" height="576.000000pt" viewBox="0 0 576.000000 576.000000"
 preserveAspectRatio="xMidYMid meet">
<metadata>
Created by potrace 1.11, written by Peter Selinger 2001-2013
</metadata>
<g transform="translate(0.000000,576.000000) scale(0.100000,-0.100000)"
fill="#000000" stroke="none">
<path d="M2814 5624 c-16 -8 -48 -31 -71 -52 -23 -21 -76 -70 -118 -108 -43
-38 -89 -80 -104 -94 -15 -14 -64 -59 -109 -100 -46 -41 -100 -91 -121 -110
-20 -19 -77 -71 -125 -115 -49 -44 -105 -96 -126 -115 -21 -19 -53 -48 -71
-65 -31 -26 -229 -207 -269 -245 -9 -8 -41 -37 -71 -65 -70 -63 -233 -212
-269 -245 -15 -14 -69 -63 -120 -110 -52 -47 -105 -96 -119 -109 -14 -12 -60
-54 -101 -91 -41 -37 -87 -79 -101 -91 -14 -13 -70 -64 -124 -114 -55 -49
-122 -111 -150 -137 -27 -25 -59 -55 -71 -65 -20 -17 -170 -154 -239 -218 -18
-16 -74 -68 -126 -115 -200 -181 -216 -203 -205 -282 7 -50 29 -84 77 -116 28
-20 43 -23 91 -19 36 3 66 12 82 25 26 20 178 157 247 222 20 19 68 63 105 96
38 34 85 77 105 95 20 19 78 72 129 119 52 47 101 92 110 100 41 38 304 278
356 325 97 89 191 174 214 195 15 14 67 61 115 105 49 44 116 105 149 136 90
83 114 104 193 176 40 36 92 84 116 107 25 22 64 58 88 80 24 21 89 80 143
130 54 50 107 98 116 106 10 8 57 51 105 95 48 44 102 93 119 108 17 16 47 43
66 61 150 138 151 139 169 119 10 -10 53 -49 96 -88 75 -67 99 -89 190 -173
22 -20 82 -75 134 -122 52 -47 106 -96 121 -110 15 -14 64 -59 110 -100 45
-41 100 -91 120 -110 21 -19 73 -67 117 -106 43 -40 93 -85 110 -100 32 -31
174 -160 256 -234 28 -25 65 -58 82 -75 18 -16 70 -64 115 -105 45 -41 103
-94 128 -118 25 -23 73 -66 106 -96 34 -30 77 -69 97 -87 19 -19 77 -72 129
-119 51 -47 108 -98 126 -115 17 -16 72 -66 120 -110 48 -44 99 -91 113 -104
14 -12 52 -46 84 -75 32 -28 93 -84 135 -124 102 -97 143 -123 197 -129 56 -7
96 9 135 53 62 71 49 159 -34 239 -49 46 -227 211 -266 245 -42 37 -186 168
-219 200 -20 19 -62 58 -93 85 -30 28 -97 88 -148 135 -51 47 -102 93 -114
103 -11 10 -63 58 -115 105 -52 48 -105 96 -117 107 -83 75 -190 173 -208 190
-12 11 -71 65 -131 120 -61 54 -115 104 -121 110 -24 22 -201 184 -237 216
-21 19 -57 52 -81 74 -37 35 -174 159 -241 220 -31 27 -213 194 -246 225 -15
14 -57 52 -94 85 -38 33 -95 86 -128 117 -143 137 -176 159 -235 163 -28 2
-60 -2 -78 -11z"/>
<path d="M3795 5398 c-14 -3 -25 -4 -25 -1 0 2 -18 -9 -39 -26 -88 -70 -85
-189 6 -258 l36 -28 355 -2 c195 -1 356 -4 358 -6 3 -3 5 -155 5 -338 0 -184
5 -350 10 -369 17 -67 98 -121 171 -113 18 2 51 16 73 31 70 49 70 51 70 556
l-1 445 -31 43 c-51 71 -51 71 -535 72 -235 1 -439 -2 -453 -6z"/>
<path d="M2475 4449 c-40 -11 -91 -66 -102 -109 -5 -19 -9 -206 -8 -416 1
-353 2 -383 19 -410 55 -86 54 -86 500 -86 383 1 386 1 427 24 22 12 50 38 62
58 22 35 22 40 22 435 l-1 400 -24 37 c-14 20 -43 46 -65 57 -38 19 -60 20
-420 20 -209 0 -394 -5 -410 -10z m590 -321 c8 -5 12 -304 6 -371 -1 -4 -87
-6 -193 -5 l-192 3 0 188 c-1 103 3 188 8 190 18 6 361 2 371 -5z"/>
<path d="M805 3026 c-37 -17 -70 -52 -85 -90 -7 -20 -10 -422 -10 -1355 -1
-1473 -5 -1373 67 -1428 l36 -28 1349 -2 c952 -2 1355 0 1370 8 96 52 126 151
71 237 -52 81 40 75 -1321 74 -664 0 -1217 1 -1229 4 l-23 4 0 1230 c0 846 -3
1237 -11 1257 -30 80 -135 124 -214 89z"/>
<path d="M3958 2375 c-2 -2 -26 -5 -53 -9 -49 -5 -122 -28 -197 -60 -44 -19
-155 -102 -197 -148 -65 -70 -152 -220 -166 -287 -2 -9 -10 -45 -19 -79 -10
-43 -14 -101 -12 -175 5 -183 46 -297 189 -532 30 -50 158 -217 218 -285 156
-177 426 -429 584 -545 22 -17 42 -32 45 -35 23 -23 97 -74 125 -86 63 -26
118 -13 195 46 71 55 253 203 287 233 168 148 271 252 422 422 165 185 305
428 355 612 36 136 29 319 -18 451 -22 62 -82 172 -112 207 -14 17 -33 39 -43
50 -28 36 -130 114 -184 142 -277 145 -593 83 -793 -154 l-53 -62 -17 27 c-32
51 -153 159 -211 189 -73 39 -146 64 -203 70 -64 6 -139 10 -142 8z m179 -354
c56 -28 171 -157 189 -213 4 -10 10 -18 15 -18 5 0 9 -7 9 -15 0 -8 5 -15 10
-15 6 0 10 -5 10 -12 0 -27 55 -89 97 -109 81 -39 160 -10 221 82 17 27 32 51
32 54 0 11 103 152 136 188 96 101 239 117 383 43 82 -43 169 -170 189 -276
19 -100 -3 -239 -51 -324 -6 -12 -12 -23 -12 -26 0 -7 -78 -137 -98 -164 -10
-14 -61 -82 -95 -126 -71 -92 -304 -330 -416 -425 -33 -27 -64 -55 -70 -60
-36 -34 -142 -115 -151 -115 -27 0 -240 186 -425 370 -146 146 -196 203 -280
320 -22 30 -44 60 -49 66 -19 23 -101 180 -116 224 -32 88 -39 157 -25 242 26
162 140 295 287 332 58 15 158 4 210 -23z"/>
</g>
</svg>
